﻿first_name,last_name,Sex,Grade_LEVEL,Quarter,Written_total,WRITTEN_PS,WRITTEN_WS,Performance_total,Performance_PS,Performance_WS,written_remarks,performance_remarks
Niño,Abao,M,G11,1,500,100,30,180,90,45,PASSED,PASSED
Juvelyn,Boneo,F,G11,1,360,72,21.6,165,82.5,41.25,PASSED,PASSED
Kokoy,Baldo,M,G12,1,392,78.34,23.5,200,100,50,FAILED,FAILED
